<?xml version="1.0" encoding="UTF-8"?>
<svg width="30px" height="39px" viewBox="0 0 30 39" version="1.1" xmlns="http://www.w3.org/2000/svg" xmlns:xlink="http://www.w3.org/1999/xlink">
    <!-- Generator: sketchtool 60.1 (101010) - https://sketch.com -->
    <title>1E5965C0-F8F1-4157-B472-45AA917482E4</title>
    <desc>Created with sketchtool.</desc>
    <g id="Card" stroke="none" stroke-width="1" fill="none" fill-rule="evenodd">
        <g id="Icons" transform="translate(-124.000000, -488.000000)">
            <g id="transfer" transform="translate(125.000000, 489.000000)">
                <rect id="Rectangle-Copy-2" stroke="#202020" fill="#FFFFFF" x="0" y="0" width="18" height="32" rx="2"></rect>
                <line x1="6" y1="3" x2="12" y2="3" id="Line-4-Copy" stroke="#202020" stroke-linecap="round"></line>
                <g id="Group-5" transform="translate(13.000000, 22.000000)">
                    <circle id="Oval" fill="#FAFAFA" cx="8" cy="8" r="8"></circle>
                    <path d="M8.01333333,0 C12.4226667,0.00733333333 16,3.58866667 16,8 C16,12.4153333 12.416,16 8,16 C3.58466667,16 0,12.4153333 0,8 C0,3.58866667 3.578,0.00733333333 7.98733333,0 L8.01333333,0 Z M10.476,10.6666667 L5.52466667,10.6666667 C5.95066667,13.5106667 7.01933333,15.3333333 8,15.3333333 C8.98133333,15.3333333 10.05,13.5106667 10.476,10.6666667 M14.8326667,10.6666667 L11.1506667,10.6666667 C10.8666667,12.6566667 10.27,14.268 9.494,15.1806667 C11.94,14.674 13.9413333,12.9473333 14.8326667,10.6666667 M4.85,10.6666667 L1.16733333,10.6666667 C2.05933333,12.9473333 4.06066667,14.674 6.50666667,15.1806667 C5.73066667,14.268 5.134,12.6566667 4.85,10.6666667 M4.768,6 L0.944,6 C0.723333333,6.77733333 0.45,8.25933333 0.944,10 L4.768,10 C4.64266667,8.79066667 4.62466667,7.38333333 4.768,6 M10.562,6 L5.43866667,6 C5.30866667,7.2 5.28866667,8.618 5.43866667,10 L10.562,10 C10.6926667,8.79266667 10.7113333,7.38 10.562,6 M15.0566667,6 L11.2326667,6 C11.274,6.39466667 11.438,8.01266667 11.2326667,10 L15.0566667,10 C15.5506667,8.25866667 15.2773333,6.77666667 15.0566667,6 M6.50666667,0.819333333 C4.06066667,1.326 2.05933333,3.05266667 1.16733333,5.33333333 L4.85,5.33333333 C5.134,3.34333333 5.73066667,1.73133333 6.50666667,0.819333333 M10.476,5.33333333 C10.05,2.48933333 8.98133333,0.666666667 8,0.666666667 C7.01933333,0.666666667 5.95066667,2.48933333 5.52466667,5.33333333 L10.476,5.33333333 Z M9.494,0.819333333 C10.27,1.73133333 10.8666667,3.34333333 11.1506667,5.33333333 L14.8326667,5.33333333 C13.9413333,3.05266667 11.94,1.326 9.494,0.819333333" id="Shape" fill="#000000"></path>
                </g>
                <g id="Group-6" transform="translate(10.000000, 9.000000)" fill-rule="nonzero">
                    <circle id="Oval-Copy-2" fill="#FDEEEB" transform="translate(8.000000, 8.000000) rotate(-90.000000) translate(-8.000000, -8.000000) " cx="8" cy="8" r="8"></circle>
                    <g id="deposit-copy-2" transform="translate(8.500000, 8.000000) rotate(-90.000000) translate(-8.500000, -8.000000) translate(5.500000, 3.500000)" fill="#F0583A">
                        <g id="icons/transactions/deposit-copy-3" transform="translate(0.000000, 0.000000)">
                            <path d="M3.01938213,-6.64335253e-12 L4.94785517,1.88561808 L4.17646595,1.88561808 L3.27190909,1.001 L3.27272727,5.59393939 C3.27272727,5.74456251 3.15062311,5.86666667 3,5.86666667 C2.84937689,5.86666667 2.72727273,5.74456251 2.72727273,5.59393939 L2.72690909,1.039 L1.86229831,1.88561808 L1.09090909,1.88561808 L3.01938213,-6.64335253e-12 Z" id="Combined-Shape" transform="translate(3.019382, 2.933333) rotate(-180.000000) translate(-3.019382, -2.933333) "></path>
                            <path d="M3,4.73333333 C3.14727593,4.73333333 3.26666667,4.85272407 3.26666667,5 L3.26666667,10.4666667 C3.26666667,10.6139426 3.14727593,10.7333333 3,10.7333333 C2.85272407,10.7333333 2.73333333,10.6139426 2.73333333,10.4666667 L2.73333333,5 C2.73333333,4.85272407 2.85272407,4.73333333 3,4.73333333 Z" id="Line-2" transform="translate(3.000000, 7.733333) rotate(-270.000000) translate(-3.000000, -7.733333) "></path>
                        </g>
                    </g>
                </g>
            </g>
        </g>
    </g>
</svg>