<?xml version="1.0" encoding="UTF-8"?>
<svg width="27px" height="34px" viewBox="0 0 27 34" version="1.1" xmlns="http://www.w3.org/2000/svg" xmlns:xlink="http://www.w3.org/1999/xlink">
    <!-- Generator: sketchtool 60.1 (101010) - https://sketch.com -->
    <title>BA12D25E-42A6-4FA5-A8A8-95976DC1DE53</title>
    <desc>Created with sketchtool.</desc>
    <g id="Card" stroke="none" stroke-width="1" fill="none" fill-rule="evenodd">
        <g id="Icons" transform="translate(-27.000000, -491.000000)">
            <g id="request" transform="translate(27.000000, 492.000000)">
                <rect id="Rectangle-Copy-2" stroke="#202020" x="8" y="0" width="18" height="32" rx="2"></rect>
                <circle id="Oval-Copy" fill="#E7F5EC" fill-rule="nonzero" transform="translate(8.000000, 16.000000) rotate(-90.000000) translate(-8.000000, -16.000000) " cx="8" cy="16" r="8"></circle>
                <g id="deposit-copy" transform="translate(8.000000, 16.000000) rotate(-90.000000) translate(-8.000000, -16.000000) translate(5.000000, 12.000000)" fill="#159E49" fill-rule="nonzero">
                    <g id="icons/transactions/deposit-copy-3" transform="translate(0.000000, 0.000000)">
                        <path d="M3.01938213,-6.64335253e-12 L4.94785517,1.88561808 L4.17646595,1.88561808 L3.27190909,1.001 L3.27272727,5.59393939 C3.27272727,5.74456251 3.15062311,5.86666667 3,5.86666667 C2.84937689,5.86666667 2.72727273,5.74456251 2.72727273,5.59393939 L2.72690909,1.039 L1.86229831,1.88561808 L1.09090909,1.88561808 L3.01938213,-6.64335253e-12 Z" id="Combined-Shape" transform="translate(3.019382, 2.933333) rotate(-180.000000) translate(-3.019382, -2.933333) "></path>
                        <path d="M3,4.73333333 C3.14727593,4.73333333 3.26666667,4.85272407 3.26666667,5 L3.26666667,10.4666667 C3.26666667,10.6139426 3.14727593,10.7333333 3,10.7333333 C2.85272407,10.7333333 2.73333333,10.6139426 2.73333333,10.4666667 L2.73333333,5 C2.73333333,4.85272407 2.85272407,4.73333333 3,4.73333333 Z" id="Line-2" transform="translate(3.000000, 7.733333) rotate(-270.000000) translate(-3.000000, -7.733333) "></path>
                    </g>
                </g>
                <line x1="14" y1="3" x2="20" y2="3" id="Line-4-Copy" stroke="#202020" stroke-linecap="round"></line>
            </g>
        </g>
    </g>
</svg>