<?xml version="1.0" encoding="UTF-8"?>
<svg width="31px" height="41px" viewBox="0 0 31 41" version="1.1" xmlns="http://www.w3.org/2000/svg" xmlns:xlink="http://www.w3.org/1999/xlink">
    <!-- Generator: sketchtool 60.1 (101010) - https://sketch.com -->
    <title>21FDA409-0265-43C8-A54C-10D8032376C0</title>
    <desc>Created with sketchtool.</desc>
    <g id="Card" stroke="none" stroke-width="1" fill="none" fill-rule="evenodd">
        <g id="Icons" transform="translate(-73.000000, -487.000000)">
            <g id="send-2" transform="translate(74.000000, 488.000000)">
                <g id="Group-2" transform="translate(11.000000, 0.000000)" stroke="#202020">
                    <rect id="Rectangle-Copy-2" x="0" y="0" width="18" height="32" rx="2"></rect>
                    <line x1="6" y1="3" x2="12" y2="3" id="Line-4-Copy" stroke-linecap="round"></line>
                </g>
                <rect id="Rectangle-Copy-2" stroke="#202020" fill="#FFFFFF" x="0" y="7" width="18" height="32" rx="2"></rect>
                <circle id="Oval-Copy-2" fill="#FDEEEB" fill-rule="nonzero" transform="translate(14.000000, 23.000000) rotate(-90.000000) translate(-14.000000, -23.000000) " cx="14" cy="23" r="8"></circle>
                <g id="deposit-copy-2" transform="translate(14.500000, 23.000000) rotate(-90.000000) translate(-14.500000, -23.000000) translate(11.500000, 18.500000)" fill="#F0583A" fill-rule="nonzero">
                    <g id="icons/transactions/deposit-copy-3" transform="translate(0.000000, 0.000000)">
                        <path d="M3.01938213,-6.64335253e-12 L4.94785517,1.88561808 L4.17646595,1.88561808 L3.27190909,1.001 L3.27272727,5.59393939 C3.27272727,5.74456251 3.15062311,5.86666667 3,5.86666667 C2.84937689,5.86666667 2.72727273,5.74456251 2.72727273,5.59393939 L2.72690909,1.039 L1.86229831,1.88561808 L1.09090909,1.88561808 L3.01938213,-6.64335253e-12 Z" id="Combined-Shape" transform="translate(3.019382, 2.933333) rotate(-180.000000) translate(-3.019382, -2.933333) "></path>
                        <path d="M3,4.73333333 C3.14727593,4.73333333 3.26666667,4.85272407 3.26666667,5 L3.26666667,10.4666667 C3.26666667,10.6139426 3.14727593,10.7333333 3,10.7333333 C2.85272407,10.7333333 2.73333333,10.6139426 2.73333333,10.4666667 L2.73333333,5 C2.73333333,4.85272407 2.85272407,4.73333333 3,4.73333333 Z" id="Line-2" transform="translate(3.000000, 7.733333) rotate(-270.000000) translate(-3.000000, -7.733333) "></path>
                    </g>
                </g>
                <line x1="6" y1="10" x2="12" y2="10" id="Line-4-Copy" stroke="#202020" stroke-linecap="round"></line>
            </g>
        </g>
    </g>
</svg>