<?xml version="1.0" encoding="UTF-8"?>
<svg width="43px" height="25px" viewBox="0 0 43 25" version="1.1" xmlns="http://www.w3.org/2000/svg" xmlns:xlink="http://www.w3.org/1999/xlink">
    <!-- Generator: sketchtool 62 (101010) - https://sketch.com -->
    <title>2B1018F6-6F29-414F-A10F-465250DB6906</title>
    <desc>Created with sketchtool.</desc>
    <g id="Asset-Artboard-Page" stroke="none" stroke-width="1" fill="none" fill-rule="evenodd">
        <g id="icons/backspace" fill="#334333">
            <path d="M9.48533507,1 C8.44355294,1 7.47635546,1.5404653 6.93036012,2.42770772 L1.44502617,11.3413754 C0.831029987,12.3391192 0.854001971,13.6029959 1.50385023,14.5777683 L6.89473845,22.6641006 C7.45113578,23.4986966 8.38782977,24 9.39088933,24 L38.2501543,24 C39.9070085,24 41.2501543,22.6568542 41.2501543,21 L41.2501543,4 C41.2501543,2.34314575 39.9070085,1 38.2501543,1 L9.48533507,1 Z M9.48533507,0 L38.2501543,0 C40.4592933,0 42.2501543,1.790861 42.2501543,4 L42.2501543,21 C42.2501543,23.209139 40.4592933,25 38.2501543,25 L9.39088933,25 C8.05347658,25 6.80455127,24.3315955 6.06268815,23.2188008 L0.671799939,15.1324685 C-0.194664411,13.8327719 -0.225293723,12.147603 0.59336785,10.817278 L6.07870181,1.9036103 C6.80669559,0.720620404 8.09629223,0 9.48533507,0 Z" id="Rectangle-3" fill-rule="nonzero"></path>
            <path d="M24.2352814,6.48528137 L24.2352814,11.7352814 L29.4852814,11.7352814 L29.4852814,13.2352814 L24.2342814,13.2352814 L24.2352814,18.4852814 L22.7352814,18.4852814 L22.7342814,13.2342814 L17.4852814,13.2352814 L17.4852814,11.7352814 L22.7352814,11.7342814 L22.7352814,6.48528137 L24.2352814,6.48528137 Z" id="Combined-Shape" transform="translate(23.485281, 12.485281) rotate(-315.000000) translate(-23.485281, -12.485281) "></path>
        </g>
    </g>
</svg>