<?xml version="1.0" encoding="UTF-8"?>
<svg width="154px" height="87px" viewBox="0 0 154 87" version="1.1" xmlns="http://www.w3.org/2000/svg" xmlns:xlink="http://www.w3.org/1999/xlink">
    <!-- Generator: sketchtool 60.1 (101010) - https://sketch.com -->
    <title>4D91C8C0-347A-4689-857F-C79561838365</title>
    <desc>Created with sketchtool.</desc>
    <g id="Card" stroke="none" stroke-width="1" fill="none" fill-rule="evenodd">
        <g id="Icons" transform="translate(-26.000000, -25.000000)">
            <g id="card_sm-copy" transform="translate(26.000000, 25.000000)">
                <rect id="Rectangle-Copy-3" fill="#2A2D2F" x="0" y="0" width="154" height="87" rx="6"></rect>
                <g id="Group-4-Copy-2" transform="translate(16.000000, 15.000000)" fill="#FFFFFF" opacity="0.198311942">
                    <g id="Group-4-Copy">
                        <polygon id="Fill-10" points="0 20 12.5 20 12.5 17.5 0 17.5"></polygon>
                        <path d="M9.12055434,11.5210346 C8.6948639,11.9216074 8.13332009,12.1217687 7.43592291,12.1217687 L4.08777071,12.1217687 L4.08777071,7.84231999 L7.43592291,7.84231999 C8.13332009,7.84231999 8.6948639,8.03922867 9.12055434,8.43254564 C9.54574806,8.82611281 9.75859328,9.33902616 9.75859328,9.97153588 C9.75859328,10.6037954 9.54574806,11.1204618 9.12055434,11.5210346 L9.12055434,11.5210346 Z M4.08777071,2.04489795 L7.16396781,2.04489795 C7.7915756,2.04489795 8.30766938,2.22779534 8.71224916,2.59308973 C9.11682893,2.95863431 9.319243,3.43626923 9.319243,4.02649488 C9.319243,4.61697074 9.11682893,5.09110283 8.71224916,5.44939157 C8.30766938,5.80793051 7.7915756,5.98707488 7.16396781,5.98707488 L4.08777071,5.98707488 L4.08777071,2.04489795 Z M11.8408504,8.10578231 C11.4015001,7.49453972 10.8049374,7.05518565 10.0519074,6.78822051 C10.6375422,6.52150557 11.1084343,6.1276882 11.4643354,5.6077692 C11.8199881,5.08785021 11.9978144,4.46910157 11.9978144,3.75252409 C11.9978144,3.20433231 11.8895291,2.69842461 11.6734552,2.23455079 C11.4571329,1.77092716 11.1504073,1.37385717 10.7527816,1.04359101 C10.355156,0.713575058 9.88426386,0.456868182 9.3401053,0.273970788 C8.79619511,0.0915737977 8.19615537,1.13686838e-13 7.54073117,1.13686838e-13 L0,1.13686838e-13 L0,1.13686838e-13 L0,1.87476084 L0.000248360819,1.87476084 C1.14842043,1.87501104 2.07902841,2.81276676 2.07902841,3.96944891 C2.07902841,5.12613106 1.14817206,6.06388678 0,6.06388678 L0,7.76425708 L0.000248360819,7.76425708 C1.14842043,7.76450728 2.07902841,8.702263 2.07902841,9.85869495 L2.07902841,10.1972178 C2.07902841,11.3541501 1.14842043,12.2916556 0.000248360819,12.2919058 L0,12.2919058 L0,14.1666667 L7.8752732,14.1666667 C8.54510232,14.1666667 9.16227896,14.0718402 9.72729982,13.8821874 C10.2923207,13.6922844 10.7805981,13.4255694 11.1921319,13.0810418 C11.6036658,12.7367643 11.924548,12.3221802 12.1547785,11.8372895 C12.3850089,11.3523987 12.5,10.8219712 12.5,10.2455067 C12.5,9.43059995 12.280449,8.7170249 11.8408504,8.10578231 L11.8408504,8.10578231 Z" id="Fill-9"></path>
                    </g>
                </g>
                <g id="mc_vrt_pos-copy-3" transform="translate(119.000000, 61.000000)" fill-rule="nonzero">
                    <g id="_Group_">
                        <rect id="Rectangle" fill="#FF5F00" x="9.16219119" y="1.70884354" width="6.76691729" height="12.3232653"></rect>
                        <path d="M9.59183673,7.87156463 C9.58930669,5.46644729 10.6785916,3.19380555 12.5456498,1.70884354 C9.3748207,-0.816315258 4.82138288,-0.448504043 2.08537012,2.55378935 C-0.650642648,5.55608274 -0.650642648,10.1848696 2.08537012,13.187163 C4.82138288,16.1894564 9.3748207,16.5572676 12.5456498,14.0321088 C10.6791856,12.5476182 9.5899672,10.275918 9.59183673,7.87156463 L9.59183673,7.87156463 Z" id="_Path_" fill="#EB001B"></path>
                        <path d="M25.0590763,7.87156463 C25.0590763,10.8720284 23.3682966,13.6090667 20.7049958,14.920249 C18.0416949,16.2314313 14.8733813,15.8865621 12.5456498,14.0321088 C14.4112997,12.5463579 15.5006001,10.2749598 15.5006001,7.87047619 C15.5006001,5.4659926 14.4112997,3.19459443 12.5456498,1.70884354 C14.8733813,-0.145609758 18.0416949,-0.490478895 20.7049958,0.820703372 C23.3682966,2.13188564 25.0590763,4.868924 25.0590763,7.86938776 L25.0590763,7.87156463 Z" id="Path" fill="#F79E1B"></path>
                    </g>
                </g>
                <rect id="Rectangle" fill="#545758" x="14" y="67" width="16" height="4" rx="2"></rect>
                <rect id="Rectangle-Copy-4" fill="#545758" x="33" y="67" width="16" height="4" rx="2"></rect>
                <rect id="Rectangle-Copy-5" fill="#545758" x="52" y="67" width="16" height="4" rx="2"></rect>
            </g>
        </g>
    </g>
</svg>