<?xml version="1.0" encoding="UTF-8"?>
<svg width="18px" height="16px" viewBox="0 0 18 16" version="1.1" xmlns="http://www.w3.org/2000/svg" xmlns:xlink="http://www.w3.org/1999/xlink">
    <!-- Generator: sketchtool 60.1 (101010) - https://sketch.com -->
    <title>2C4A6320-41EF-4F7E-B6AD-A00B080BC95A</title>
    <desc>Created with sketchtool.</desc>
    <g id="Card" stroke="none" stroke-width="1" fill="none" fill-rule="evenodd" stroke-linecap="square">
        <g id="Icons" transform="translate(-102.000000, -368.000000)" stroke="#191919">
            <g id="Group" transform="translate(103.000000, 368.000000)">
                <line x1="0" y1="15.7989899" x2="15.4816071" y2="0.317382812" id="Line"></line>
                <line x1="0" y1="15.7989899" x2="15.4816071" y2="0.317382812" id="Line" transform="translate(8.000000, 8.000000) rotate(-270.000000) translate(-8.000000, -8.000000) "></line>
            </g>
        </g>
    </g>
</svg>