<?xml version="1.0" encoding="UTF-8"?>
<svg width="18px" height="18px" viewBox="0 0 18 18" version="1.1" xmlns="http://www.w3.org/2000/svg" xmlns:xlink="http://www.w3.org/1999/xlink">
    <!-- Generator: sketchtool 61.2 (101010) - https://sketch.com -->
    <title>32C0EE64-A2A9-4642-9375-E08C548AF0FB</title>
    <desc>Created with sketchtool.</desc>
    <g id="Icons" stroke="none" stroke-width="1" fill="none" fill-rule="evenodd">
        <g transform="translate(-133.000000, -304.000000)" fill="#AFAFAF" fill-rule="nonzero" id="x">
            <g transform="translate(141.970563, 312.970563) rotate(-315.000000) translate(-141.970563, -312.970563) translate(129.970563, 300.970563)">
                <polygon id="Line" transform="translate(11.847186, 11.847186) rotate(-270.000000) translate(-11.847186, -11.847186) " points="11.325447 0.368925277 12.3689253 0.368925277 12.3689253 23.325447 11.325447 23.325447"></polygon>
                <polygon id="Line" transform="translate(11.847186, 11.847186) rotate(-180.000000) translate(-11.847186, -11.847186) " points="11.325447 0.368925277 12.3689253 0.368925277 12.3689253 23.325447 11.325447 23.325447"></polygon>
            </g>
        </g>
    </g>
</svg>