<?xml version="1.0" encoding="UTF-8"?>
<svg width="18px" height="19px" viewBox="0 0 18 19" version="1.1" xmlns="http://www.w3.org/2000/svg" xmlns:xlink="http://www.w3.org/1999/xlink">
    <!-- Generator: sketchtool 60.1 (101010) - https://sketch.com -->
    <title>CF5A097B-EF1A-4B15-9144-F44A25D16F9F</title>
    <desc>Created with sketchtool.</desc>
    <g id="Card" stroke="none" stroke-width="1" fill="none" fill-rule="evenodd">
        <g id="Icons" transform="translate(-131.000000, -364.000000)" stroke="#AFAFAF">
            <g id="search" transform="translate(130.000000, 365.000000)">
                <circle id="Oval" cx="11.25" cy="6.5" r="6.5"></circle>
                <line x1="6.15" y1="11.5833333" x2="1.65" y2="17.7083333" id="Line-2" stroke-linecap="square"></line>
            </g>
        </g>
    </g>
</svg>