<?xml version="1.0" encoding="UTF-8"?>
<svg width="29px" height="23px" viewBox="0 0 29 23" version="1.1" xmlns="http://www.w3.org/2000/svg" xmlns:xlink="http://www.w3.org/1999/xlink">
    <!-- Generator: sketchtool 60.1 (101010) - https://sketch.com -->
    <title>717EAAC3-C174-4397-B92F-0BAD2F7F0963</title>
    <desc>Created with sketchtool.</desc>
    <g id="Card" stroke="none" stroke-width="1" fill="none" fill-rule="evenodd">
        <g transform="translate(-241.000000, -832.000000)" fill="#AFAFAF" fill-rule="nonzero" id="icons/wallet">
            <g transform="translate(241.000000, 832.000000)">
                <g id="wallet">
                    <path d="M3,5 C1.8954305,5 1,5.8954305 1,7 L1,20 C1,21.1045695 1.8954305,22 3,22 L26,22 C27.1045695,22 28,21.1045695 28,20 L28,7 C28,5.8954305 27.1045695,5 26,5 L3,5 Z M3,4 L26,4 C27.6568542,4 29,5.34314575 29,7 L29,20 C29,21.6568542 27.6568542,23 26,23 L3,23 C1.34314575,23 0,21.6568542 0,20 L0,7 C0,5.34314575 1.34314575,4 3,4 Z" id="Rectangle"></path>
                    <path d="M25,4.70638384 L25,2.82906894 C25,2.6563011 24.9844554,2.48389658 24.9535611,2.31401708 C24.6742136,0.77795855 23.2248955,-0.236666354 21.7164187,0.0477889297 L2.27197428,3.71445114 C0.955310276,3.96273605 0,5.13219708 0,6.49573115 L0,20.171432 C0,21.733607 1.24365347,23 2.77777778,23 L22.2222222,23 L22.2222222,22 L2.77777778,22 C1.80003453,22 1,21.1853373 1,20.171432 L1,6.49573115 C1,5.61000268 1.6161366,4.85574748 2.45727961,4.69713213 L21.9017241,1.03046992 C22.8612,0.849540385 23.7889451,1.49902742 23.9696985,2.49294232 C23.9898547,2.60377626 24,2.71629731 24,2.82906894 L24,4.70638384 L25,4.70638384 Z M25,2.82906894 C25,2.6563011 24.9844554,2.48389658 24.9535611,2.31401708 C24.6742136,0.77795855 23.2248955,-0.236666354 21.7164187,0.0477889297 L2.27197428,3.71445114 C0.955310276,3.96273605 0,5.13219708 0,6.49573115 L0,20.171432 C0,21.733607 1.24365347,23 2.77777778,23 L22.2222222,23 L22.2222222,22 L2.77777778,22 C1.80003453,22 1,21.1853373 1,20.171432 L1,6.49573115 C1,5.61000268 1.6161366,4.85574748 2.45727961,4.69713213 L21.9017241,1.03046992 C22.8612,0.849540385 23.7889451,1.49902742 23.9696985,2.49294232 C23.9898547,2.60377626 24,2.71629731 24,2.82906894 L24,5 L25,5 L25,2.82906894 Z" id="Path"></path>
                    <path d="M28,18 L28,12 L19,12 C17.8954305,12 17,12.8954305 17,14 L17,16 C17,17.1045695 17.8954305,18 19,18 L28,18 Z M19,11 L29,11 L29,19 L19,19 C17.3431458,19 16,17.6568542 16,16 L16,14 C16,12.3431458 17.3431458,11 19,11 Z" id="Rectangle"></path>
                </g>
            </g>
        </g>
    </g>
</svg>